{
	"ugly_flags": "-c -m --comments '/^!/'",
	"js_files": [
		"index.js"
	],
	"scss_files": [
		"main.scss",
		"map.scss"
	],
	"pug_files": [
		"index.pug"
	],
	"hostc_dirs": {
		"scripts": {
			"cflags": "-Wall -pedantic -Wno-parentheses",
			"binaries": {
				"runall": { "sources": ["runall.c"] }
			}
		},
		"tools/tippecanoe-1.34.3": {
			"cflags": "-I. -DNDEBUG -Wall -Wsign-compare -Wextra -Wunreachable-code -Wuninitialized -Wshadow",
			"cxxflags": "-I. -DNDEBUG -Wall -Wsign-compare -Wextra -Wunreachable-code -Wuninitialized -Wshadow",
			"binaries": {
				"tippecanoe": {
					"link_cxx": true,
					"sources": [
						"csv.cpp",
						"dirtiles.cpp",
						"evaluator.cpp",
						"geobuf.cpp",
						"geocsv.cpp",
						"geojson-loop.cpp",
						"geojson.cpp",
						"geometry.cpp",
						"jsonpull/jsonpull.c",
						"main.cpp",
						"mbtiles.cpp",
						"memfile.cpp",
						"mvt.cpp",
						"plugin.cpp",
						"pool.cpp",
						"projection.cpp",
						"read_json.cpp",
						"serial.cpp",
						"text.cpp",
						"tile.cpp",
						"write_json.cpp"
					],
					"ldflags": "-lm -lz -lsqlite3 -pthread"
				}
			}
		},
		"valenmunge": {
			"cflags": "-Wall -pedantic",
			"cxxflags": "-std=c++11"
		}
	},
	"go_packages": [
		"ocean-madness/tilesrv"
	],
	"go_host_packages": [
		"ocean-madness/tilesrv"
	],
	"valenmunge_cython_mods": {
		"coastline": {
			"extra_sources": ["coastline.c"]
		}
	}
}
